{
    "count": 1281,
    "next": "https://pokeapi.co/api/v2/pokemon/?offset=36&limit=20",
    "previous": "https://pokeapi.co/api/v2/pokemon/?offset=0&limit=16",
    "results": [
        {
            "name": "pidgeotto",
            "url": "https://pokeapi.co/api/v2/pokemon/17/"
        },
        {
            "name": "pidgeot",
            "url": "https://pokeapi.co/api/v2/pokemon/18/"
        },
        {
            "name": "rattata",
            "url": "https://pokeapi.co/api/v2/pokemon/19/"
        },
        {
            "name": "raticate",
            "url": "https://pokeapi.co/api/v2/pokemon/20/"
        },
        {
            "name": "spearow",
            "url": "https://pokeapi.co/api/v2/pokemon/21/"
        },
        {
            "name": "fearow",
            "url": "https://pokeapi.co/api/v2/pokemon/22/"
        },
        {
            "name": "ekans",
            "url": "https://pokeapi.co/api/v2/pokemon/23/"
        },
        {
            "name": "arbok",
            "url": "https://pokeapi.co/api/v2/pokemon/24/"
        },
        {
            "name": "pikachu",
            "url": "https://pokeapi.co/api/v2/pokemon/25/"
        },
        {
            "name": "raichu",
            "url": "https://pokeapi.co/api/v2/pokemon/26/"
        },
        {
            "name": "sandshrew",
            "url": "https://pokeapi.co/api/v2/pokemon/27/"
        },
        {
            "name": "sandslash",
            "url": "https://pokeapi.co/api/v2/pokemon/28/"
        },
        {
            "name": "nidoran-f",
            "url": "https://pokeapi.co/api/v2/pokemon/29/"
        },
        {
            "name": "nidorina",
            "url": "https://pokeapi.co/api/v2/pokemon/30/"
        },
        {
            "name": "nidoqueen",
            "url": "https://pokeapi.co/api/v2/pokemon/31/"
        },
        {
            "name": "nidoran-m",
            "url": "https://pokeapi.co/api/v2/pokemon/32/"
        },
        {
            "name": "nidorino",
            "url": "https://pokeapi.co/api/v2/pokemon/33/"
        },
        {
            "name": "nidoking",
            "url": "https://pokeapi.co/api/v2/pokemon/34/"
        },
        {
            "name": "clefairy",
            "url": "https://pokeapi.co/api/v2/pokemon/35/"
        },
        {
            "name": "clefable",
            "url": "https://pokeapi.co/api/v2/pokemon/36/"
        }
    ]
}